{"data":[{"id":17,"documentId":"r346qynsosi483unrwt146on","companyName":"&Ranj","description":null,"address":"Lloydstraat 21-M, 3024 EA Rotterdam","city":"Rotterdam","lat":51.902817,"lon":4.459637,"email":"info@ranj.nl","website":"https://ranj.com/en/home","phone":"+31 10 212 3101","createdAt":"2025-11-17T16:13:30.133Z","updatedAt":"2025-11-17T16:22:37.194Z","publishedAt":"2025-11-17T16:22:37.202Z","tags":"Applied","studenten":[{"id":2,"documentId":"a3pxub387xxkvg92b5ie90n7","nameAndCompany":"Mar_Ranj","name":"Mar","year":"2025","description":"Mar werkte bij &Ranj aan meerdere serious game-projecten in Unity en het interne Javascript-framework, waarbij ze leerde werken in een bestaand framework en actief samenwerkte binnen een multidisciplinair team.","createdAt":"2025-11-17T16:22:33.602Z","updatedAt":"2025-11-17T16:22:33.602Z","publishedAt":"2025-11-17T16:22:33.614Z"}]},{"id":18,"documentId":"t7d067gks040bvpvatm3j2m8","companyName":"SIC Gamelab","description":null,"address":"Ripolinstraat 7 1222HN Hilversum","city":"Hilversum","lat":52.2335,"lon":5.192029,"email":"info@sicgamelab.nl","website":"www.sicgamelab.nl","phone":null,"createdAt":"2025-11-17T15:54:54.129Z","updatedAt":"2025-11-17T16:23:06.489Z","publishedAt":"2025-11-17T16:23:06.498Z","tags":"Game, Applied, XR","studenten":[{"id":4,"documentId":"l1po6ko9hjc1v437b6tvew29","nameAndCompany":"Eduardo_Gamelab","name":"Eduardo","year":"2025","description":"Eduardo heeft tijdens zijn stage bij SIC GameLab bestaande games geüpdatet en technische problemen opgelost, terwijl hij tegelijk de basis van VR-ontwikkeling leerde via Unity en een eerste VR-prototype maakte.","createdAt":"2025-11-17T16:23:03.962Z","updatedAt":"2025-11-17T16:23:03.962Z","publishedAt":"2025-11-17T16:23:03.967Z"}]},{"id":19,"documentId":"umpx381epdv1ixxtbq1nq87x","companyName":"XR4Industry","description":null,"address":"Nieuweweg 101, 6603 BK Wijchen","city":"Wijchen","lat":51.811985,"lon":5.745445,"email":"info@xr4industry.com","website":"www.xr4industry.com","phone":"+31 24 420 0541","createdAt":"2025-11-17T15:56:11.091Z","updatedAt":"2025-11-17T16:23:35.221Z","publishedAt":"2025-11-17T16:23:35.231Z","tags":"Simulatie, Applied, XR","studenten":[{"id":6,"documentId":"k47p6w5oxm998txj6m86rs6r","nameAndCompany":"Thijs_XR4Industry","name":"Thijs","year":"2025","description":"Thijs werkte bij XR4Industry aan het testen en bouwen van testomgevingen voor digitale machine-simulaties en ontwikkelde daarbij zowel technische vaardigheden in C# als betere stress- en planningsvaardigheden.","createdAt":"2025-11-17T16:23:31.593Z","updatedAt":"2025-11-17T16:23:31.593Z","publishedAt":"2025-11-17T16:23:31.599Z"}]},{"id":20,"documentId":"bci2a793rqjm5rt67gpdvao1","companyName":"Xeropex","description":null,"address":"Hogeweg 229B, 3816 BS Amersfoort","city":"Amersfoort","lat":52.1625065,"lon":5.4264639,"email":"info@xeropex.com","website":"https://xeropex.com/","phone":"+31 85 303 96 76","createdAt":"2025-11-17T16:19:37.535Z","updatedAt":"2025-11-17T16:24:10.588Z","publishedAt":"2025-11-17T16:24:10.595Z","tags":"Web","studenten":[{"id":8,"documentId":"vxanmr9a22u6kd5l4vcovt7p","nameAndCompany":"MaxXeropex","name":"Max","year":"2025","description":"Max werkte bij Xeropex aan het ontwikkelen van een Laravel-project en leerde daarbij effectief met API’s te werken binnen een professionele backend-omgeving.","createdAt":"2025-11-17T16:24:07.696Z","updatedAt":"2025-11-17T16:24:07.696Z","publishedAt":"2025-11-17T16:24:07.703Z"}]},{"id":23,"documentId":"e6mu4pcs60r8yx4vh49k2s0w","companyName":"Radorfa","description":null,"address":"Bulkseweg 15a, 5331 PK Kerkdriel","city":"Kerkdriel","lat":51.7709083,"lon":5.3251874,"email":"support@radorfa.nl","website":"www.radorfa.nl","phone":"+31 73 369 0719","createdAt":"2025-11-17T16:42:13.977Z","updatedAt":"2025-11-17T16:42:17.859Z","publishedAt":"2025-11-17T16:42:17.865Z","tags":"Software, Web, Game","studenten":[{"id":10,"documentId":"wki2wozg1jo9nkhjp6a7040s","nameAndCompany":"Anass_Radorfa","name":"Anass","year":"2025","description":"Anass heeft tijdens zijn stage bij Radorfa in een klein team gewerkt aan de frontend van een Unity-game, waarbij hij veel leerde over C#, API-koppelingen en samenwerken in een professionele werkomgeving.","createdAt":"2025-11-17T16:42:08.950Z","updatedAt":"2025-11-17T16:42:08.950Z","publishedAt":"2025-11-17T16:42:08.955Z"}]},{"id":25,"documentId":"quxe7bnhqy7f9midpbumpyzl","companyName":"Xolbor","description":null,"address":"Europalaan 400, 3526 KS Utrecht","city":"Utrecht","lat":52.09083,"lon":5.12222,"email":"info@xolbor.io","website":"www.xolbor.io","phone":"+31641619902","createdAt":"2025-11-17T16:43:35.427Z","updatedAt":"2025-11-17T16:43:35.427Z","publishedAt":"2025-11-17T16:43:35.432Z","tags":"Game","studenten":[{"id":12,"documentId":"ndbhaeos7vrkhh7m6e3rwj2r","nameAndCompany":"Vincent_Xolbor","name":"Vincent","year":"2025","description":"Vincent heeft tijdens zijn stage bij Xolbor in Roblox Studio gewerkt aan het programmeren van nieuwe features in Luau en het uitbreiden van het interne framework, waarbij hij daarnaast ook regelmatig taken buiten zijn specialisme oppakte, zoals level design, asset-integratie en AI-art generation.","createdAt":"2025-11-17T16:43:28.775Z","updatedAt":"2025-11-17T16:43:28.775Z","publishedAt":"2025-11-17T16:43:28.779Z"}]},{"id":27,"documentId":"ep1l8j1spiouatj37gzt0ax0","companyName":"DPDK","description":null,"address":"Calandstraat 5a, 3016 CA Rotterdam","city":"Rotterdam","lat":51.9072626,"lon":4.4771065,"email":null,"website":"www.dpdk.com","phone":null,"createdAt":"2025-11-17T16:44:37.739Z","updatedAt":"2025-11-17T16:44:37.739Z","publishedAt":"2025-11-17T16:44:37.745Z","tags":"Web","studenten":[{"id":14,"documentId":"sbey4503rc7yijolp6e0rfa8","nameAndCompany":"Sander_DPDK","name":"Sander","year":"2025","description":"Sander heeft bij DPDK als front-end developer gewerkt aan de nieuwe corporate website, waarbij hij professionele workflows (git, reviews, scrum) leerde gebruiken en efficiënt leerde werken met tools als Next.js en Tailwind.","createdAt":"2025-11-17T16:44:30.994Z","updatedAt":"2025-11-17T16:44:30.994Z","publishedAt":"2025-11-17T16:44:30.999Z"}]},{"id":29,"documentId":"a4fiz4nzz2orpoa2wt0q4ebo","companyName":"LaserMaxx","description":null,"address":"Achterweteringseweg 12, 3738 MA Maartensdijk","city":"Maartsendijk","lat":52.149234771728516,"lon":5.157686233520508,"email":"john@lasermaxx.com","website":"www.lasermaxx.com","phone":"+31 302288049","createdAt":"2025-11-17T16:46:34.901Z","updatedAt":"2025-11-17T16:46:34.901Z","publishedAt":"2025-11-17T16:46:34.906Z","tags":"Game, XR","studenten":[{"id":16,"documentId":"l62szjqzkjc1dv7hag7kzspv","nameAndCompany":"Youri_LaserMaxx","name":"Youri","year":"2025","description":"Youri heeft bij LaserMaxx gewerkt aan meerdere VR-projecten, waarbij hij onder andere een multiplayer-scoresysteem ontwikkelde en actief verbeterde in codeconventies en samenwerking binnen een klein VR-ontwikkelteam.","createdAt":"2025-11-17T16:45:59.359Z","updatedAt":"2025-11-17T16:45:59.359Z","publishedAt":"2025-11-17T16:45:59.363Z"},{"id":18,"documentId":"p4hz7sg2qxinn7148yqow60q","nameAndCompany":"Rijk_Lasermaxx","name":"Rijk","year":"2025","description":"Rijk heeft bij LaserMaxx gewerkt aan het opzetten en opschonen van een herbruikbaar Unity-templateproject en het ontwikkelen van een animatiecontroller voor NPC’s binnen een VR-game, waardoor hij zowel projectstructuur als animatiesystemen verbeterde.","createdAt":"2025-11-17T16:46:28.007Z","updatedAt":"2025-11-17T16:46:28.007Z","publishedAt":"2025-11-17T16:46:28.013Z"}]},{"id":31,"documentId":"jsiced3j9ox92ix5xl9wto4s","companyName":"Edumersive","description":null,"address":"K.P. van der Mandelelaan 41-43, Rotterdam","city":"Rotterdam","lat":51.91709518432617,"lon":4.532454967498779,"email":null,"website":"www.edumersive.nl","phone":null,"createdAt":"2025-11-17T16:47:40.324Z","updatedAt":"2025-11-17T16:47:40.324Z","publishedAt":"2025-11-17T16:47:40.329Z","tags":"XR","studenten":[{"id":20,"documentId":"jmiuc1ultl39jl0efisy7c5y","nameAndCompany":"Kenan_Edumersive","name":"Kenan","year":"2024","description":"Kenan heeft bij Edumersive gewerkt aan het verbeteren van de XR-hulpmenu’s volgens een styleguide en het ontwikkelen van een AR/XR-project, waarbij hij leerde plannen met Trello, XR-tools toe te passen in Unity en beter te werken volgens professionele richtlijnen.","createdAt":"2025-11-17T16:47:33.870Z","updatedAt":"2025-11-17T16:47:33.870Z","publishedAt":"2025-11-17T16:47:33.874Z"}]},{"id":34,"documentId":"ac3nblyw91eed94bzyh5ibtk","companyName":"Knucklehead Studios","description":null,"address":"Australiëlaan 13, 3526 AB Utrecht","city":"Utrecht","lat":52.09083,"lon":5.12222,"email":null,"website":"www.knucklehead-studios.com","phone":null,"createdAt":"2025-11-17T16:48:58.242Z","updatedAt":"2025-11-17T16:49:02.203Z","publishedAt":"2025-11-17T16:49:02.212Z","tags":"Game, XR","studenten":[{"id":22,"documentId":"l36g8w0p0tg6ojgqbsu25cad","nameAndCompany":"Job_Knucklehead","name":"Job","year":"2025","description":"Job heeft bij Knucklehead Studios gewerkt aan het volledig herstructureren van de game loop van een VR LBE-game en heeft daarbij SOLID-principes en projectstructuur toegepast om schaalbare, onderhoudbare minigames te bouwen binnen een professioneel ontwikkelteam.","createdAt":"2025-11-17T16:48:54.181Z","updatedAt":"2025-11-17T16:48:54.181Z","publishedAt":"2025-11-17T16:48:54.185Z"}]},{"id":36,"documentId":"injqn24ju6ptypprnxq99ea4","companyName":"XR-lab","description":null,"address":"Koos Postemalaan 6, 1217 ZC Hilversum","city":"Hilversum","lat":52.2414558,"lon":5.170221,"email":null,"website":"www.xr-lab.nl","phone":null,"createdAt":"2025-11-17T16:50:54.849Z","updatedAt":"2025-11-17T16:50:54.849Z","publishedAt":"2025-11-17T16:50:54.854Z","tags":"Game, XR","studenten":[{"id":24,"documentId":"k3b0y8kia6d9v3tbgqfl8tk2","nameAndCompany":"Steph_XRlab","name":"Steph","year":"2025","description":"Steph werkte bij XR-Lab als Lead Developer binnen twee XR-projecten, waar zij developers aanstuurde, code reviews uitvoerde en documentatie opstelde, terwijl ze daarnaast haar Lua-skills ontwikkelde door gameplay- en UI-systemen in Roblox Studio te bouwen.","createdAt":"2025-11-17T16:50:20.528Z","updatedAt":"2025-11-17T16:50:20.528Z","publishedAt":"2025-11-17T16:50:20.533Z"},{"id":26,"documentId":"jvvvevs61hxsw6krlui0xrg5","nameAndCompany":"Bart_XRlab","name":"Bart","year":"2025","description":"Bart werkte bij XRLABS aan een VR-bibliotheekervaring en een Roblox-project, waarbij hij leerde optimaliseren naar 72 FPS en voor het eerst met Roblox en Lua aan de slag ging.","createdAt":"2025-11-17T16:50:47.166Z","updatedAt":"2025-11-17T16:50:47.166Z","publishedAt":"2025-11-17T16:50:47.170Z"}]},{"id":38,"documentId":"apd119yeuuqeio9ksmz6qivj","companyName":"Idealisers","description":null,"address":"Kronehoefstraat 85-87, 5612 HL Eindhoven","city":"Eindhoven","lat":51.4518939,"lon":5.4659418,"email":null,"website":"www.idealisers.com","phone":null,"createdAt":"2025-11-17T16:52:08.693Z","updatedAt":"2025-11-17T16:52:08.693Z","publishedAt":"2025-11-17T16:52:08.699Z","tags":"Game, XR","studenten":[{"id":28,"documentId":"ywnqzusoonvx5o063l1uesly","nameAndCompany":"Kjeld_Idealisers","name":"Kjeld","year":"2025","description":"Kjeld werkte bij Idealisers aan het ontwikkelen van meerdere Unity-games, waarbij hij zijn codekwaliteit verbeterde met design patterns zoals object pooling en actief leerde plannen via Trello en weekplanningen.","createdAt":"2025-11-17T16:52:01.533Z","updatedAt":"2025-11-17T16:52:01.533Z","publishedAt":"2025-11-17T16:52:01.537Z"}]},{"id":40,"documentId":"opb06pop3zfwlu2klkjjbdxg","companyName":"Questcontrol","description":null,"address":"Witte Vlinderweg 20a, 1521 PS Wormerveer","city":"Wormerveer","lat":52.09083,"lon":5.12222,"email":null,"website":"www.questcontrol.net","phone":null,"createdAt":"2025-11-17T16:53:23.340Z","updatedAt":"2025-11-17T16:53:23.340Z","publishedAt":"2025-11-17T16:53:23.345Z","tags":"Web","studenten":[{"id":30,"documentId":"rxb6rpqpwjhs1q87w6ffm36d","nameAndCompany":"Tycho_Questcontrol","name":"Tycho","year":"2025","description":"Tycho heeft bij Questcontrol gewerkt aan het bouwen van een webplanner met ASP.NET Core en VueJS, waarbij hij praktijkervaring opdeed met professionele workflows en front-end development, maar merkte dat hij in zijn volgende stage liever weer aan gameprojecten werkt.","createdAt":"2025-11-17T16:53:16.407Z","updatedAt":"2025-11-17T16:53:16.407Z","publishedAt":"2025-11-17T16:53:16.411Z"}]},{"id":42,"documentId":"o5d3tk82oy7266og6pob4i77","companyName":"Wiex Agency","description":null,"address":"Steenovenweg 11, 3417 XR Montfoort","city":"Montfoort","lat":52.09083,"lon":5.12222,"email":null,"website":"https://wiex.agency","phone":null,"createdAt":"2025-11-17T16:54:29.412Z","updatedAt":"2025-11-17T16:54:29.412Z","publishedAt":"2025-11-17T16:54:29.417Z","tags":"Web","studenten":[{"id":32,"documentId":"irvsuoivyzszwxww7ifdzc7b","nameAndCompany":"Vj_Wiex","name":"Vj","year":"2025","description":"VJ werkte bij Wiex Agency aan het bouwen van websites met Nuxt3, Tailwind en externe API’s, waarbij hij front-end fundamentals toepaste, feedback verwerkte in zijn designs en leerde om mobiel-first en responsief te ontwikkelen.","createdAt":"2025-11-17T16:54:23.667Z","updatedAt":"2025-11-17T16:54:23.667Z","publishedAt":"2025-11-17T16:54:23.671Z"}]},{"id":44,"documentId":"a7fcd1p9pvx9tbhs98a2cup4","companyName":"DIVD","description":null,"address":"Maanweg 174 8e et, 2516 AB Den Haag","city":"Den Haag","lat":52.0680572,"lon":4.3534297,"email":null,"website":"www.divd.nl","phone":null,"createdAt":"2025-11-17T17:01:48.888Z","updatedAt":"2025-11-17T17:01:48.888Z","publishedAt":"2025-11-17T17:01:48.893Z","tags":"Software, Web","studenten":[{"id":34,"documentId":"tgfja6o1ygljril1w4cwcawk","nameAndCompany":"Baran_DIVD","name":"Baran","year":"2025","description":"Baran werkte bij DIVD als teamleider aan een webproject, waar hij met HTML, CSS en JavaScript een interactieve website ontwikkelde en daarnaast Flutter leerde via kleine app-prototypes om zijn mobile development skills uit te breiden.","createdAt":"2025-11-17T17:01:14.811Z","updatedAt":"2025-11-17T17:01:14.811Z","publishedAt":"2025-11-17T17:01:14.815Z"},{"id":36,"documentId":"sgnfc0ahep2i0br94gkxep1x","nameAndCompany":"Kasper_DIVD","name":"Kasper","year":"2025","description":"Kasper werkte bij DIVD aan het DIVD.works-project, waar hij zich bezighield met cybersecurity, web development en samenwerkingstools zoals Trello en GitHub, terwijl hij vrij kon kiezen aan welke taken en leerdoelen hij werkte. Tijdens zijn stage volgde hij een cybersecuritycursus, werkte hij mee aan de website en ontwikkelde hij ideeën in verschillende richtingen, zoals app- en game development.","createdAt":"2025-11-17T17:01:41.487Z","updatedAt":"2025-11-17T17:01:41.487Z","publishedAt":"2025-11-17T17:01:41.491Z"}]},{"id":46,"documentId":"gtq46mk7vmrfs0eb0bh1hnap","companyName":"Zes","description":null,"address":"Pearyweg 1, 4462 GT Goes","city":"Goes","lat":51.486262,"lon":3.876193,"email":null,"website":"www.zesinternational.com","phone":null,"createdAt":"2025-11-17T17:02:42.766Z","updatedAt":"2025-11-17T17:02:42.766Z","publishedAt":"2025-11-17T17:02:42.773Z","tags":"Software, Web","studenten":[{"id":38,"documentId":"bbpbrc955wypm5kl3gqjntrr","nameAndCompany":"Silvano_Zes","name":"Silvano","year":"2025","description":"Silvano werkte bij Zes Goes in het Store Red-team aan de Zir Store applicatie, waar hij met PHP, Symfony en JavaScript ontwikkelde, actief leerde omgaan met feedback en bewust uitdagende tickets oppakte om sneller technisch en sociaal te groeien.","createdAt":"2025-11-17T17:02:35.591Z","updatedAt":"2025-11-17T17:02:35.591Z","publishedAt":"2025-11-17T17:02:35.595Z"}]},{"id":48,"documentId":"yu9umc3k9ddh2n5fnh87nouv","companyName":"UtilityKeurmerk","description":null,"address":"Meipoortstraat 49, 6981 DJ Doesburg","city":"Doesburg","lat":52.0141096,"lon":6.1379436,"email":null,"website":"www.nietjanken.nl","phone":null,"createdAt":"2025-11-17T17:03:56.711Z","updatedAt":"2025-11-17T17:03:56.711Z","publishedAt":"2025-11-17T17:03:56.718Z","tags":"Web","studenten":[{"id":40,"documentId":"o8tbgqxb122u4qx5ltz4ha3d","nameAndCompany":"Vincent_UtilityKeurmerk","name":"Vincent","year":"2025","description":"Vincent werkte bij UtilityKeurmerk (NietJanken) aan een intern HR-project met het Yii2-framework, waar hij frontend- en backendtaken uitvoerde in PHP, HTML en CSS.","createdAt":"2025-11-17T17:03:49.970Z","updatedAt":"2025-11-17T17:03:49.970Z","publishedAt":"2025-11-17T17:03:49.977Z"}]},{"id":50,"documentId":"y3sipp80o9msf56nzmrbqbkf","companyName":"Griffid","description":null,"address":"Camerastraat 25, 1322 BB Almere","city":"Almere","lat":52.09083,"lon":5.12222,"email":null,"website":"www.griffid.com","phone":null,"createdAt":"2025-11-17T17:04:54.874Z","updatedAt":"2025-11-17T17:04:54.874Z","publishedAt":"2025-11-17T17:04:54.884Z","tags":"Software","studenten":[{"id":42,"documentId":"nm6p2uo5l26ly54j5tg8xqq2","nameAndCompany":"Björn_Griffid","name":"Björn","year":"2025","description":"Björn werkte bij Griffid B.V. aan een C#-gebaseerde port- en connectiemonitoring tool voor de supportafdeling, waarbij hij zich richtte op veilig dataverkeer, HTTPS-communicatie en technische keuzes onderbouwen, terwijl hij leerde werken binnen een professioneel, informeel softwareteam.","createdAt":"2025-11-17T17:04:48.525Z","updatedAt":"2025-11-17T17:04:48.525Z","publishedAt":"2025-11-17T17:04:48.529Z"}]},{"id":52,"documentId":"zxm7l7z76vc141i5mx28ef3c","companyName":"ICT@work","description":null,"address":"Dijkgraaf 36, 6921 RL Duiven","city":"Duiven","lat":51.9626214,"lon":5.9969336,"email":null,"website":"www.ictatwork.nl","phone":null,"createdAt":"2025-11-17T17:05:51.080Z","updatedAt":"2025-11-17T17:05:51.080Z","publishedAt":"2025-11-17T17:05:51.089Z","tags":"Web, Software","studenten":[{"id":44,"documentId":"w00rlb09g1wh8o854vk10pa0","nameAndCompany":"Jayson_ICT@Work","name":"Jayson","year":"2025","description":"Jayson werkte bij ICT@WORK met .NET MAUI aan een mobiele app die GPS-locatie gebruikt om winkels en kortingscodes te tonen, waarbij hij sensordata onderzocht (zoals GPS, barometer en magnetometer) en daarnaast een beheerwebsite bouwde om winkels en producten te beheren.","createdAt":"2025-11-17T17:05:44.542Z","updatedAt":"2025-11-17T17:05:44.542Z","publishedAt":"2025-11-17T17:05:44.548Z"}]},{"id":54,"documentId":"ng1kn3ndvfu4wrs0q6n9yiyc","companyName":"EduvolutionX","description":null,"address":"Molengraaffsingel 12, 2629 JD Delft","city":"Delft","lat":51.9934014,"lon":4.3866223,"email":null,"website":"www.eduvolutionx.com","phone":null,"createdAt":"2025-11-17T17:07:10.423Z","updatedAt":"2025-11-17T17:07:10.423Z","publishedAt":"2025-11-17T17:07:10.428Z","tags":"XR","studenten":[{"id":46,"documentId":"wb0aywd6e6u40hxgwsti510j","nameAndCompany":"Lorenzo_EduvolutionX","name":"Lorenzo","year":"2025","description":"Lorenzo werkte bij EduvolutionX aan een educatieve VR-game over water, waarbij hij leerde coderen in VR en actiever samen te werken binnen het team.","createdAt":"2025-11-17T17:06:40.669Z","updatedAt":"2025-11-17T17:06:40.669Z","publishedAt":"2025-11-17T17:06:40.677Z"},{"id":48,"documentId":"sthfi2bdfgofdpp6iin70ll8","nameAndCompany":"Owais_EduvolutionX","name":"Owais","year":"2025","description":"Owais werkte bij EduvolutionX aan een VR-simulatie over waterproblemen, waarbij hij samenwerkte aan puzzel-design in Unity en leerde beter samen te werken en zelfstandig nieuwe technieken te leren.","createdAt":"2025-11-17T17:07:04.479Z","updatedAt":"2025-11-17T17:07:04.479Z","publishedAt":"2025-11-17T17:07:04.485Z"}]},{"id":56,"documentId":"hn9nl9zeduz9nsyfrnu06683","companyName":"Solvware","description":null,"address":"Taxandriaweg 12 K, 5142 PA Waalwijk","city":"Waalwijk","lat":51.692328,"lon":5.0725567,"email":null,"website":"www.solvware.com","phone":null,"createdAt":"2025-11-17T17:08:17.445Z","updatedAt":"2025-11-17T17:08:17.445Z","publishedAt":"2025-11-17T17:08:17.450Z","tags":"Software","studenten":[{"id":50,"documentId":"h9a2w2a4tq3z85yfl3w8dlds","nameAndCompany":"Gerben_Solvware","name":"Gerben","year":"2025","description":"Gerben werkte bij Solvware aan PHP-ontwikkeling binnen een CRM-systeem, waarbij hij zijn PHP-kennis verdiepte en oefende met professioneel communiceren in een developmentteam.","createdAt":"2025-11-17T17:08:11.841Z","updatedAt":"2025-11-17T17:08:11.841Z","publishedAt":"2025-11-17T17:08:11.846Z"}]},{"id":59,"documentId":"cwxdn940rz0ket5p6dhzgjsc","companyName":"X2R Software","description":null,"address":"de Sluis 2a, 4271 CZ Dussen","city":"Dussen","lat":51.7284734,"lon":4.9591423,"email":null,"website":"www.x2r.nl","phone":null,"createdAt":"2025-11-17T17:09:10.779Z","updatedAt":"2025-11-17T17:09:16.308Z","publishedAt":"2025-11-17T17:09:16.317Z","tags":"Web","studenten":[{"id":52,"documentId":"z4omuwqk2vvxppba3iriqvri","nameAndCompany":"Thomas_X2R","name":"Thomas","year":"2025","description":"Thomas werkte bij X2R Software als developer en supportmedewerker, waar hij vooral HTML leerde gebruiken en voor het eerst een API bouwde en toepaste in een webproject.","createdAt":"2025-11-17T17:09:08.104Z","updatedAt":"2025-11-17T17:09:08.104Z","publishedAt":"2025-11-17T17:09:08.109Z"}]},{"id":61,"documentId":"dnyzpv972onzsum1znce1tri","companyName":"Sterco","description":null,"address":"Bedrijfsweg 6, 3411 NV Lopik","city":"Lopik","lat":51.9872145,"lon":4.9691837,"email":null,"website":"www.sterco.nl","phone":null,"createdAt":"2025-11-17T17:10:03.928Z","updatedAt":"2025-11-17T17:10:03.928Z","publishedAt":"2025-11-17T17:10:03.935Z","tags":"Software","studenten":[{"id":54,"documentId":"zvzye9coqbyzcr1j39v8789r","nameAndCompany":"Fabian_Sterco","name":"Fabian","year":"2025","description":"Fabian werkte bij Ster.co als developer en officemanager, waar hij Power Apps en Power Automate leerde gebruiken om bedrijfsprocessen te automatiseren.","createdAt":"2025-11-17T17:09:56.675Z","updatedAt":"2025-11-17T17:09:56.675Z","publishedAt":"2025-11-17T17:09:56.682Z"}]},{"id":64,"documentId":"lipwxguzh8ldq052m47wyobb","companyName":"Cliq Digital","description":null,"address":"Stadhouderskade 85, 1073 AT Amsterdam","city":"Amsterdam","lat":52.3576675,"lon":4.8939613,"email":null,"website":"www.cliqdigital.com","phone":null,"createdAt":"2025-11-17T17:10:49.844Z","updatedAt":"2025-11-17T17:10:57.300Z","publishedAt":"2025-11-17T17:10:57.308Z","tags":"Web","studenten":[{"id":56,"documentId":"unvoosu5dyxur1n1eapytlar","nameAndCompany":"Pedro_CliqDigital","name":"Pedro","year":"2025","description":"Pedro werkte bij Cliq Digital aan het bouwen van responsive webpagina's in HTML, CSS en JavaScript, terwijl hij ervaring opdeed met front-end development binnen een professioneel marketingteam.","createdAt":"2025-11-17T17:10:46.645Z","updatedAt":"2025-11-17T17:10:46.645Z","publishedAt":"2025-11-17T17:10:46.653Z"}]},{"id":66,"documentId":"qh8tqai3qvkambab2tzoww83","companyName":"Incontrol","description":null,"address":"Jaap Bijzerweg 21A, 3446 CR Woerden","city":"Woerden","lat":52.0780376,"lon":4.8990354,"email":null,"website":"www.incontrolsim.com","phone":null,"createdAt":"2025-11-17T17:11:50.538Z","updatedAt":"2025-11-17T17:11:50.538Z","publishedAt":"2025-11-17T17:11:50.543Z","tags":"Software, Simulatie","studenten":[{"id":58,"documentId":"euyw591tn0hg0r4tsmht1sba","nameAndCompany":"Timo_Incontrol","name":"Timo","year":"2025","description":"Timo werkte bij INCONTROL aan het bouwen van een .NET MAUI wizard-applicatie met database-koppeling, waarbij hij ervaring opdeed met nieuwe programmeertalen én het opzetten en gebruiken van databases.","createdAt":"2025-11-17T17:11:44.960Z","updatedAt":"2025-11-17T17:11:44.960Z","publishedAt":"2025-11-17T17:11:44.966Z"}]}],"meta":{"pagination":{"page":1,"pageSize":25,"pageCount":2,"total":32}}}